{
  "version": "2.9.0",
  "changes": "Support for discussionplugin 0.9dev and drop support for earlier versions, Added support for trac 1.1 and dropped
   support for trac version 0.10 and 0.11. Added suppport for announcer plugin and that each ticket has its own replyto address",
  "state": "stable",
  "scope": "bug fixes",
  "download": "ftp://ftp.surfsara.nl/pub/outgoing/email2trac-2.9.0.tar.gz"
}
